120

H       -6.84914498       7.73163769       0.93584175
H       -2.61971340       8.24062054       1.27552123
H        4.95241344      -4.08872369      -3.48509268
C        5.54080324      -3.71320910      -2.66050845
C        6.90005797      -4.08517651      -2.55989447
H        7.32407618      -4.73859070      -3.30877396
C        4.97972385      -2.89167585      -1.73150905
C        5.73853514      -2.39401499      -0.64143175
C        7.11774217      -2.76550994      -0.54053623
C        7.66354771      -3.62402198      -1.53361293
C        5.17852953      -1.54759488       0.32924243
C        5.95967209      -1.07521899       1.41635733
C        7.34468060      -1.44513109       1.49312001
C        7.88631682      -2.28129548       0.50834070
C        5.41975049      -0.26782231       2.42085850
C        6.18983338       0.20592001       3.47400637
C        7.57836395      -0.14568759       3.54098797
C        8.11654122      -0.96195865       2.55818878
C        5.64683340       1.03243163       4.49377970
C        6.42412812       1.48717157       5.51254806
C        7.79460511       1.14257786       5.57798652
C        8.35354990       0.35150087       4.62406464
H        8.93025859      -2.55607680       0.57197448
H       -0.64920025       2.33490401       0.44139957
H       -5.09089034      -0.85968460      -0.47655792
C        3.83518299      -1.14852620       0.22617541
C        2.68671477      -0.77388863       0.13586955
C        1.34068483      -0.36478515       0.06512085
C        0.35179565      -1.30917697      -0.21576409
C       -0.98837418      -0.97168999      -0.26064057
C       -1.34572625       0.36354417      -0.01264846
C       -0.35051822       1.31213071       0.25635756
C        0.98751532       0.97748935       0.29298885
C       -2.68474413       0.79658756      -0.03235314
C       -3.81007367       1.24710784      -0.02830499
C       -5.10805707       1.78060287      -0.01853688
C       -6.22122801       0.95065124      -0.23643206
C       -7.53694332       1.51496167      -0.22260775
C       -7.70088070       2.87326287       0.00896702
C       -6.60671193       3.71968306       0.22970382
C       -5.27937794       3.17222213       0.21531120
C       -6.77163393       5.09118737       0.46460086
C       -5.69079777       5.93197560       0.68096837
C       -4.36582092       5.38432687       0.66189008
C       -4.19529075       4.02585596       0.43120865
C       -5.84785206       7.32423169       0.92172655
C       -4.76783457       8.12343451       1.12932402
C       -3.46071618       7.58319847       1.10854165
C       -3.26655616       6.25651301       0.88182482
C       -6.08569730      -0.43993192      -0.47228694
C       -7.17416312      -1.22910626      -0.68341556
C       -8.47261447      -0.67381501      -0.67202267
C       -8.64715704       0.65610522      -0.44813389
H       -7.05409778      -2.28701751      -0.86121779
H        0.64775109      -2.33354975      -0.39660562
C        1.74858407       3.16500502      -1.71725400
H       -9.32304012      -1.31817825      -0.84264150
H       -8.69736259       3.29335248       0.02001915
H       -7.77309587       5.49989592       0.47626632
C        2.04496360       2.01663806       0.51288969
C        3.97423017       3.27731864      -0.51649903
H       -2.27010893       5.83850084       0.86430878
H       -4.89520069       9.18072931       1.31223938
H       -3.19697413       3.61202097       0.41703556
H        3.94141058      -2.60195094      -1.80409135
H        8.70491299      -3.90197455      -1.44993060
H        4.36906163      -0.01503969       2.37803980
H        9.16032651      -1.24040008       2.61208819
H        4.59898832       1.29205897       4.43863322
H        6.00479112       2.11661681       6.28407837
H        8.39031598       1.51698656       6.39799744
H        9.40005424       0.08430398       4.66972989
H       -9.63707209       1.09068431      -0.43662390
C       -2.01471463      -2.02779834      -0.54671407
C       -2.23194935      -2.95957749       0.66222151
H       -2.95834253      -1.55455304      -0.81954612
H       -1.67435685      -2.63024095      -1.39283337
C       -2.96005427      -2.20979358       1.78300022
C       -2.92621427      -4.26149907       0.23624229
H       -1.24247246      -3.24254911       1.04336517
H       -2.31138873      -4.73837363      -0.53251617
H       -2.94994460      -4.94121688       1.09024102
C       -4.34560145      -4.10384970      -0.30574661
H       -2.40630948      -1.29118801       1.99116949
H       -3.95546550      -1.91577668       1.44698023
C       -3.07616977      -3.00863659       3.07659794
H       -2.09648716      -3.35451052       3.40072949
H       -3.49642157      -2.38461190       3.86258555
H       -3.72334700      -3.87240311       2.95005498
H       -4.34243648      -3.43338339      -1.16708825
C       -4.92723779      -5.45170464      -0.73088568
H       -4.98871347      -3.66705377       0.45989798
H       -4.29303291      -5.89010080      -1.50524965
H       -4.92264881      -6.13277364       0.12364891
C       -6.35054012      -5.32016206      -1.26136040
H       -6.73671269      -6.29022267      -1.56687689
H       -7.00775663      -4.91798055      -0.49256988
H       -6.37652858      -4.65485720      -2.12242790
C        2.73399188       2.42143479      -0.80624978
H        3.05599939       1.50628875      -1.31478444
H        1.60323244       2.90581879       0.96820307
H        2.80357616       1.62099151       1.19049790
H        1.63963446       4.19390368      -1.36466280
C        2.17062517       3.16989100      -3.18524664
H        0.76904792       2.68678272      -1.65086599
H        3.15246695       3.63498039      -3.29404709
H        2.25465928       2.13812986      -3.53554471
C        1.16803878       3.91798811      -4.06180459
H        1.08084388       4.94896519      -3.71034262
C        1.58335447       3.91887140      -5.52879216
H        0.18485855       3.45136712      -3.96383415
H        0.85586736       4.45681305      -6.13275287
H        2.55268703       4.39808131      -5.65045624
H        1.65636329       2.90033501      -5.90433243
H        6.04000317       3.10174703       0.08983117
H        4.99203881       1.87619717       0.79468545
H        5.46070572       1.75815176      -0.89692219
H        3.73747779       3.99870471       0.26950326
C        5.18860353       2.45290434      -0.10501133
H        4.23342339       3.84414421      -1.41212162
