120

H       -7.02567687       7.62161118       0.93769982
H       -2.81629214       8.22563827       1.36083843
H        3.51299905      -6.02621488      -0.75414738
C        4.35708890      -5.38259772      -0.55338395
C        5.65456105      -5.93941298      -0.52279206
H        5.77857097      -6.99791166      -0.70088333
C        4.17202651      -4.05190833      -0.33268152
C        5.26816953      -3.19339170      -0.06668450
C        6.58366943      -3.75653357      -0.03445223
C        6.73296771      -5.15010397      -0.27150492
C        5.09727915      -1.81622098       0.16631212
C        6.21709728      -0.98485347       0.43583081
C        7.52902215      -1.56850386       0.46487081
C        7.67560124      -2.94084331       0.22664765
C        6.08390664       0.38367314       0.67888004
C        7.17977360       1.19113958       0.95169871
C        8.49057294       0.61076940       0.97671271
C        8.63165164      -0.74649618       0.73296108
C        7.04769588       2.58072348       1.21151739
C        8.13687782       3.35145585       1.47252343
C        9.43065648       2.78014292       1.49205039
C        9.60214457       1.45278386       1.25324937
H        8.66682478      -3.37259713       0.24986563
H       -0.63355081       2.33612343       0.42479431
H       -5.04940580      -0.93356240      -0.43128230
C        3.80565927      -1.26902692       0.13588018
C        2.68286738      -0.81228464       0.10401376
C        1.34741804      -0.37214962       0.06064147
C        0.34877592      -1.31485804      -0.20913121
C       -0.98844023      -0.97372656      -0.25346489
C       -1.34219257       0.36617376      -0.01355765
C       -0.34315426       1.31011993       0.24651929
C        0.99541618       0.97155257       0.27870498
C       -2.68250597       0.79368064      -0.02538634
C       -3.81914858       1.21583437      -0.01496487
C       -5.13025233       1.71535632      -0.00294521
C       -6.22118122       0.85639819      -0.22460289
C       -7.54963679       1.39040753      -0.22889778
C       -7.74846171       2.74541253      -0.00531311
C       -6.67803692       3.61757697       0.23040885
C       -5.33809304       3.10182467       0.23273855
C       -6.87896957       4.98439480       0.46442330
C       -5.82179480       5.84971283       0.70009062
C       -4.48444589       5.33282949       0.70294108
C       -4.27806997       3.97979513       0.46893058
C       -6.01521022       7.23731701       0.94129230
C       -4.95787684       8.06042550       1.17119671
C       -3.63867834       7.55012293       1.17484441
C       -3.41013660       6.22899115       0.94779937
C       -6.05205125      -0.53305803      -0.44681351
C       -7.12040039      -1.34705128      -0.66793439
C       -8.43073958      -0.82058390      -0.67917941
C       -8.63742385       0.50612700      -0.46445358
H       -6.97708529      -2.40392138      -0.83812961
H        0.63903282      -2.34088422      -0.38824379
C        3.24955759       4.05269189      -0.37570973
H       -9.26436389      -1.48422791      -0.85825996
H       -8.75453010       3.14200670      -0.01072279
H       -7.88990967       5.36914638       0.46158774
C        2.02683144       2.03057583       0.52652478
C        2.78086156       2.10280758      -1.90277467
H       -2.40461493       5.83345650       0.95014195
H       -5.11294466       9.11400198       1.35409135
H       -3.27028019       3.58931872       0.47104775
H        3.18217377      -3.62047986      -0.35473472
H        7.73016378      -5.56683870      -0.24561362
H        5.09716317       0.82377946       0.65294701
H        9.61811553      -1.18996112       0.75091799
H        6.05689764       3.01117073       1.19955872
H        8.02713937       4.40802477       1.66827367
H       10.28055452       3.41377622       1.70116191
H       10.58818326       1.00971032       1.26938387
H       -9.63673526       0.91864539      -0.46791288
C       -2.02126656      -2.01842911      -0.55161381
C       -2.30759927      -2.95452270       0.63883612
H       -2.95229646      -1.53523921      -0.85434521
H       -1.66982925      -2.62760493      -1.38928793
C       -2.77890830      -2.17255736       1.87605832
C       -3.34984829      -3.99924188       0.21253973
H       -1.37974511      -3.48003750       0.88937075
H       -4.34168606      -3.54145316       0.23403534
H       -3.14731800      -4.30413410      -0.81556424
C       -3.33881788      -5.23956224       1.10539197
H       -3.26713118      -1.24914642       1.55850273
H       -3.52480825      -2.76149591       2.41314321
C       -1.64966072      -1.83711975       2.84484707
H       -2.03869459      -1.28519504       3.69824590
H       -1.17876857      -2.74744135       3.21119816
H       -0.88853352      -1.22873912       2.36406243
H       -3.39409421      -4.93250181       2.15192077
C       -4.49816781      -6.19684941       0.82372711
H       -2.39356597      -5.77049038       0.96908588
H       -4.48400209      -6.98919348       1.57659877
H       -5.44283333      -5.65853411       0.93080948
C       -4.43338946      -6.83447032      -0.56033407
H       -3.48003427      -7.33953422      -0.70130201
H       -5.22956825      -7.56712958      -0.67528533
H       -4.54682302      -6.08616501      -1.34021892
C        2.26419242       2.92318443      -0.70640663
H        1.30853827       3.38010831      -0.98691619
H        1.68548460       2.65893678       1.35143319
H        2.97104797       1.56657877       0.81777504
H        3.42334695       4.62642313      -1.28962107
C        2.75527846       5.01685320       0.70387743
H        4.20237569       3.61211768      -0.07735030
H        1.70496915       5.25042955       0.51121505
H        2.81975412       4.54867699       1.68794204
C        3.54092676       6.32942021       0.73597546
H        3.06084182       7.00366843       1.44994215
C        5.00005012       6.14471179       1.13760772
H        3.49371711       6.80288471      -0.24757817
H        5.06861388       5.63765763       2.09817084
H        5.53554273       5.55751421       0.39608242
H        5.49236031       7.11112873       1.22495502
H        1.15554353       2.51636906      -3.26683356
H        2.09393875       1.07815402      -3.67246211
H        0.94429598       1.03296104      -2.33768295
H        3.32174738       1.22662056      -1.54016076
C        1.67308958       1.65406432      -2.85069484
H        3.49114357       2.70661580      -2.47254299
