110

H        0.32483469      -5.05798764      -2.14535364
C       -0.58141508      -5.51454135      -1.74105037
H        4.99226631      -4.20787173      -1.57933700
C        5.58799289      -3.38197596      -1.21890993
C        6.99634416      -3.48823908      -1.24481374
H        7.44936959      -4.39338501      -1.62307187
C        4.99003026      -2.25333421      -0.74785983
C        5.75943576      -1.16187584      -0.27163084
C        7.18696482      -1.26641559      -0.29957405
C        7.77010376      -2.46227823      -0.80015972
C        5.16235975       0.01300668       0.21466837
C        5.95868631       1.08850239       0.69053754
C        7.38853814       0.96582736       0.65419076
C        7.96368723      -0.21022922       0.15514357
C        5.38990271       2.25596336       1.20488169
C        6.17315946       3.30034137       1.67832790
C        7.60192040       3.18653930       1.63254378
C        8.17122627       2.02895887       1.12424920
C        5.60286585       4.48655552       2.21195184
C        6.38874440       5.49893754       2.66621749
C        7.79821195       5.38860033       2.61712530
C        8.38577798       4.26900309       2.11748394
H        9.04153451      -0.29451329       0.12793851
H       -1.10994775       3.00210916      -0.05285364
H       -4.84884845      -1.00992368       0.50244437
C        3.76607042       0.14670577       0.23081911
C        2.56378553       0.29678376       0.24712818
C        1.17542743       0.50936167       0.24788278
C        0.29474670      -0.56380063       0.39632226
C       -1.07533370      -0.36942694       0.39099287
C       -1.56933878       0.94317678       0.21986758
C       -0.68743074       2.01735695       0.07020372
C        0.68157756       1.82326714       0.08644284
C       -2.95458275       1.16587990       0.20085352
C       -4.15199251       1.35239665       0.17946883
C       -5.53833750       1.55602252       0.15515611
C       -6.40571215       0.45895901       0.30536804
C       -7.82083424       0.67283279       0.27838540
C       -8.32140607       1.95594407       0.10459926
C       -7.47573432       3.06235536      -0.04757972
C       -6.05333432       2.86816324      -0.02285048
C       -7.97887457       4.35819552      -0.22451756
C       -7.14263891       5.45380318      -0.37552085
C       -5.72242563       5.25749662      -0.34988325
C       -5.21711275       3.97600318      -0.17514725
C       -7.64337295       6.77209351      -0.55585480
C       -6.79803337       7.82699935      -0.70076496
C       -5.39715632       7.63294461      -0.67502769
C       -4.87674682       6.38803357      -0.50517440
C       -5.91874087      -0.86075004       0.48303546
C       -6.77709290      -1.90855461       0.62505292
C       -8.17402414      -1.70093776       0.59936304
C       -8.67940525      -0.44959919       0.43163829
H       -6.39881630      -2.91136488       0.75901785
H        1.75081354      -6.91780142      -1.20053788
C        0.86314877      -7.38896581      -0.78408373
H       -8.83504266      -2.54794034       0.71464818
H       -9.39159413       2.10960206       0.08516754
H       -1.25428708      -7.47219465      -1.15060614
H       -0.26118763      -7.44808502      -2.60701193
H       -1.80729286      -5.34183985       0.01895706
H       -0.11333935      -4.92245904       0.27969562
H       -1.38745904      -5.33931536      -2.45768784
C       -0.36860322      -7.02342587      -1.60599336
H        3.91346530      -2.16305208      -0.72841770
H        8.84861667      -2.53456847      -0.81793294
H        4.31302812       2.34330095       1.22952709
H        9.24855184       1.93677839       1.09114601
H        4.52519140       4.56113289       2.25009283
H        5.94744005       6.39830758       3.07092104
H        8.40112708       6.20664335       2.98459759
H        9.46253043       4.17853418       2.08028083
H        0.75360621      -7.06856149       0.24856997
H       -9.74704175      -0.28122797       0.41092138
H        1.01250873      -8.46644787      -0.78966984
H        0.72228039      -1.54606325       0.52072722
O       -2.02027339      -1.33458081       0.55637862
O        1.61671094       2.79793109      -0.05026181
H       -9.05069573       4.50180807      -0.24312192
H       -4.14698310       3.82441900      -0.15565562
H       -8.71474384       6.91442008      -0.57477243
H       -7.18622458       8.82595629      -0.83735880
H       -4.74753125       8.48818999      -0.79230323
H       -3.80717299       6.23317889      -0.48482567
C        1.19554182       4.10622259      -0.37784429
C        2.41697665       4.98612328      -0.63714854
H        0.61290040       4.52642504       0.45595075
H        0.55703827       4.08278739      -1.27203884
H        2.06774246       6.02036713      -0.66180137
H        3.11038791       4.87884498       0.19753711
C        3.14810462       4.66774708      -1.94374114
H        2.41697037       4.53148736      -2.74440055
H        3.77118756       5.52517645      -2.21040485
C        4.03617654       3.42966046      -1.84272245
H        3.43781698       2.57119661      -1.53852190
C        4.74116810       3.11059466      -3.15810165
H        4.78888395       3.59515725      -1.06870960
H        3.99646190       2.92978694      -3.93729722
H        5.34231731       3.96957157      -3.46768110
C        5.63887784       1.88634315      -3.02316830
H        5.05401772       1.01905152      -2.72474328
H        6.13359537       1.66221093      -3.96591075
H        6.40093495       2.05634998      -2.26534087
C       -1.63101790      -2.68504651       0.70754534
C       -1.27618268      -3.35841210      -0.62044137
H       -0.80307569      -2.77411182       1.42234387
H       -2.50849777      -3.17289745       1.14252813
H       -0.42504503      -2.84889983      -1.07689856
C       -0.94523424      -4.83556706      -0.42136919
H       -2.12557495      -3.25397461      -1.29892445
